%YAML 1.1
%TAG !u! tag:unity3d.com,2011:
--- !u!1001 &2198814797566032173
PrefabInstance:
  m_ObjectHideFlags: 0
  serializedVersion: 2
  m_Modification:
    m_TransformParent: {fileID: 0}
    m_Modifications:
    - target: {fileID: 233899594294999217, guid: 4dae1db0cc83b774f8d07bec6f916163,
        type: 3}
      propertyPath: m_Name
      value: SimGameplayMenuView
      objectReference: {fileID: 0}
    - target: {fileID: 3351284804304834100, guid: 4dae1db0cc83b774f8d07bec6f916163,
        type: 3}
      propertyPath: m_Pivot.x
      value: 0.5
      objectReference: {fileID: 0}
    - target: {fileID: 3351284804304834100, guid: 4dae1db0cc83b774f8d07bec6f916163,
        type: 3}
      propertyPath: m_Pivot.y
      value: 0.5
      objectReference: {fileID: 0}
    - target: {fileID: 3351284804304834100, guid: 4dae1db0cc83b774f8d07bec6f916163,
        type: 3}
      propertyPath: m_RootOrder
      value: 0
      objectReference: {fileID: 0}
    - target: {fileID: 3351284804304834100, guid: 4dae1db0cc83b774f8d07bec6f916163,
        type: 3}
      propertyPath: m_AnchorMax.x
      value: 1
      objectReference: {fileID: 0}
    - target: {fileID: 3351284804304834100, guid: 4dae1db0cc83b774f8d07bec6f916163,
        type: 3}
      propertyPath: m_AnchorMax.y
      value: 1
      objectReference: {fileID: 0}
    - target: {fileID: 3351284804304834100, guid: 4dae1db0cc83b774f8d07bec6f916163,
        type: 3}
      propertyPath: m_AnchorMin.x
      value: 0
      objectReference: {fileID: 0}
    - target: {fileID: 3351284804304834100, guid: 4dae1db0cc83b774f8d07bec6f916163,
        type: 3}
      propertyPath: m_AnchorMin.y
      value: 0
      objectReference: {fileID: 0}
    - target: {fileID: 3351284804304834100, guid: 4dae1db0cc83b774f8d07bec6f916163,
        type: 3}
      propertyPath: m_SizeDelta.x
      value: 0
      objectReference: {fileID: 0}
    - target: {fileID: 3351284804304834100, guid: 4dae1db0cc83b774f8d07bec6f916163,
        type: 3}
      propertyPath: m_SizeDelta.y
      value: 0
      objectReference: {fileID: 0}
    - target: {fileID: 3351284804304834100, guid: 4dae1db0cc83b774f8d07bec6f916163,
        type: 3}
      propertyPath: m_LocalPosition.x
      value: 0
      objectReference: {fileID: 0}
    - target: {fileID: 3351284804304834100, guid: 4dae1db0cc83b774f8d07bec6f916163,
        type: 3}
      propertyPath: m_LocalPosition.y
      value: 0
      objectReference: {fileID: 0}
    - target: {fileID: 3351284804304834100, guid: 4dae1db0cc83b774f8d07bec6f916163,
        type: 3}
      propertyPath: m_LocalPosition.z
      value: 0
      objectReference: {fileID: 0}
    - target: {fileID: 3351284804304834100, guid: 4dae1db0cc83b774f8d07bec6f916163,
        type: 3}
      propertyPath: m_LocalRotation.w
      value: 1
      objectReference: {fileID: 0}
    - target: {fileID: 3351284804304834100, guid: 4dae1db0cc83b774f8d07bec6f916163,
        type: 3}
      propertyPath: m_LocalRotation.x
      value: 0
      objectReference: {fileID: 0}
    - target: {fileID: 3351284804304834100, guid: 4dae1db0cc83b774f8d07bec6f916163,
        type: 3}
      propertyPath: m_LocalRotation.y
      value: 0
      objectReference: {fileID: 0}
    - target: {fileID: 3351284804304834100, guid: 4dae1db0cc83b774f8d07bec6f916163,
        type: 3}
      propertyPath: m_LocalRotation.z
      value: 0
      objectReference: {fileID: 0}
    - target: {fileID: 3351284804304834100, guid: 4dae1db0cc83b774f8d07bec6f916163,
        type: 3}
      propertyPath: m_AnchoredPosition.x
      value: 0
      objectReference: {fileID: 0}
    - target: {fileID: 3351284804304834100, guid: 4dae1db0cc83b774f8d07bec6f916163,
        type: 3}
      propertyPath: m_AnchoredPosition.y
      value: 0
      objectReference: {fileID: 0}
    - target: {fileID: 3351284804304834100, guid: 4dae1db0cc83b774f8d07bec6f916163,
        type: 3}
      propertyPath: m_LocalEulerAnglesHint.x
      value: 0
      objectReference: {fileID: 0}
    - target: {fileID: 3351284804304834100, guid: 4dae1db0cc83b774f8d07bec6f916163,
        type: 3}
      propertyPath: m_LocalEulerAnglesHint.y
      value: 0
      objectReference: {fileID: 0}
    - target: {fileID: 3351284804304834100, guid: 4dae1db0cc83b774f8d07bec6f916163,
        type: 3}
      propertyPath: m_LocalEulerAnglesHint.z
      value: 0
      objectReference: {fileID: 0}
    m_RemovedComponents: []
  m_SourcePrefab: {fileID: 100100000, guid: 4dae1db0cc83b774f8d07bec6f916163, type: 3}
--- !u!224 &3459298526868715289 stripped
RectTransform:
  m_CorrespondingSourceObject: {fileID: 3351284804304834100, guid: 4dae1db0cc83b774f8d07bec6f916163,
    type: 3}
  m_PrefabInstance: {fileID: 2198814797566032173}
  m_PrefabAsset: {fileID: 0}
--- !u!1001 &3569564976333462594
PrefabInstance:
  m_ObjectHideFlags: 0
  serializedVersion: 2
  m_Modification:
    m_TransformParent: {fileID: 3459298526868715289}
    m_Modifications:
    - target: {fileID: 1801569554213004508, guid: b8bd1d93291af8d4c86a78f1015162e7,
        type: 3}
      propertyPath: m_Name
      value: SimGameSettingsMenuButtonView
      objectReference: {fileID: 0}
    - target: {fileID: 5473456615328059936, guid: b8bd1d93291af8d4c86a78f1015162e7,
        type: 3}
      propertyPath: m_Pivot.x
      value: 0.5
      objectReference: {fileID: 0}
    - target: {fileID: 5473456615328059936, guid: b8bd1d93291af8d4c86a78f1015162e7,
        type: 3}
      propertyPath: m_Pivot.y
      value: 0.5
      objectReference: {fileID: 0}
    - target: {fileID: 5473456615328059936, guid: b8bd1d93291af8d4c86a78f1015162e7,
        type: 3}
      propertyPath: m_RootOrder
      value: 0
      objectReference: {fileID: 0}
    - target: {fileID: 5473456615328059936, guid: b8bd1d93291af8d4c86a78f1015162e7,
        type: 3}
      propertyPath: m_AnchorMax.x
      value: 0.17777778
      objectReference: {fileID: 0}
    - target: {fileID: 5473456615328059936, guid: b8bd1d93291af8d4c86a78f1015162e7,
        type: 3}
      propertyPath: m_AnchorMax.y
      value: 0.96666664
      objectReference: {fileID: 0}
    - target: {fileID: 5473456615328059936, guid: b8bd1d93291af8d4c86a78f1015162e7,
        type: 3}
      propertyPath: m_AnchorMin.x
      value: 0.05925926
      objectReference: {fileID: 0}
    - target: {fileID: 5473456615328059936, guid: b8bd1d93291af8d4c86a78f1015162e7,
        type: 3}
      propertyPath: m_AnchorMin.y
      value: 0.9
      objectReference: {fileID: 0}
    - target: {fileID: 5473456615328059936, guid: b8bd1d93291af8d4c86a78f1015162e7,
        type: 3}
      propertyPath: m_SizeDelta.x
      value: 0
      objectReference: {fileID: 0}
    - target: {fileID: 5473456615328059936, guid: b8bd1d93291af8d4c86a78f1015162e7,
        type: 3}
      propertyPath: m_SizeDelta.y
      value: 0
      objectReference: {fileID: 0}
    - target: {fileID: 5473456615328059936, guid: b8bd1d93291af8d4c86a78f1015162e7,
        type: 3}
      propertyPath: m_LocalPosition.x
      value: 0
      objectReference: {fileID: 0}
    - target: {fileID: 5473456615328059936, guid: b8bd1d93291af8d4c86a78f1015162e7,
        type: 3}
      propertyPath: m_LocalPosition.y
      value: 0
      objectReference: {fileID: 0}
    - target: {fileID: 5473456615328059936, guid: b8bd1d93291af8d4c86a78f1015162e7,
        type: 3}
      propertyPath: m_LocalPosition.z
      value: 0
      objectReference: {fileID: 0}
    - target: {fileID: 5473456615328059936, guid: b8bd1d93291af8d4c86a78f1015162e7,
        type: 3}
      propertyPath: m_LocalRotation.w
      value: 1
      objectReference: {fileID: 0}
    - target: {fileID: 5473456615328059936, guid: b8bd1d93291af8d4c86a78f1015162e7,
        type: 3}
      propertyPath: m_LocalRotation.x
      value: -0
      objectReference: {fileID: 0}
    - target: {fileID: 5473456615328059936, guid: b8bd1d93291af8d4c86a78f1015162e7,
        type: 3}
      propertyPath: m_LocalRotation.y
      value: -0
      objectReference: {fileID: 0}
    - target: {fileID: 5473456615328059936, guid: b8bd1d93291af8d4c86a78f1015162e7,
        type: 3}
      propertyPath: m_LocalRotation.z
      value: -0
      objectReference: {fileID: 0}
    - target: {fileID: 5473456615328059936, guid: b8bd1d93291af8d4c86a78f1015162e7,
        type: 3}
      propertyPath: m_AnchoredPosition.x
      value: 0
      objectReference: {fileID: 0}
    - target: {fileID: 5473456615328059936, guid: b8bd1d93291af8d4c86a78f1015162e7,
        type: 3}
      propertyPath: m_AnchoredPosition.y
      value: 0
      objectReference: {fileID: 0}
    - target: {fileID: 5473456615328059936, guid: b8bd1d93291af8d4c86a78f1015162e7,
        type: 3}
      propertyPath: m_LocalEulerAnglesHint.x
      value: 0
      objectReference: {fileID: 0}
    - target: {fileID: 5473456615328059936, guid: b8bd1d93291af8d4c86a78f1015162e7,
        type: 3}
      propertyPath: m_LocalEulerAnglesHint.y
      value: 0
      objectReference: {fileID: 0}
    - target: {fileID: 5473456615328059936, guid: b8bd1d93291af8d4c86a78f1015162e7,
        type: 3}
      propertyPath: m_LocalEulerAnglesHint.z
      value: 0
      objectReference: {fileID: 0}
    m_RemovedComponents: []
  m_SourcePrefab: {fileID: 100100000, guid: b8bd1d93291af8d4c86a78f1015162e7, type: 3}
