{
    "name": "Simofun.Unity.Editor",
    "rootNamespace": "",
    "references": [
        "GUID:0028c1da643c0764ca46fb72829b751a",
        "GUID:0a0471484b079be408cb3a0d7fe94736",
        "GUID:560b04d1a97f54a4e82edc0cbbb69285"
    ],
    "includePlatforms": [
        "Editor"
    ],
    "excludePlatforms": [],
    "allowUnsafeCode": false,
    "overrideReferences": false,
    "precompiledReferences": [],
    "autoReferenced": true,
    "defineConstraints": [],
    "versionDefines": [],
    "noEngineReferences": false
}