%YAML 1.1
%TAG !u! tag:unity3d.com,2011:
--- !u!1001 &7086838874279548142
PrefabInstance:
  m_ObjectHideFlags: 0
  serializedVersion: 2
  m_Modification:
    m_TransformParent: {fileID: 0}
    m_Modifications:
    - target: {fileID: 2209777337237459925, guid: 2042526f67bc15941bb834865f5829d6,
        type: 3}
      propertyPath: m_Pivot.x
      value: 0.5
      objectReference: {fileID: 0}
    - target: {fileID: 2209777337237459925, guid: 2042526f67bc15941bb834865f5829d6,
        type: 3}
      propertyPath: m_Pivot.y
      value: 0.5
      objectReference: {fileID: 0}
    - target: {fileID: 2209777337237459925, guid: 2042526f67bc15941bb834865f5829d6,
        type: 3}
      propertyPath: m_RootOrder
      value: 0
      objectReference: {fileID: 0}
    - target: {fileID: 2209777337237459925, guid: 2042526f67bc15941bb834865f5829d6,
        type: 3}
      propertyPath: m_AnchorMax.x
      value: 0.5
      objectReference: {fileID: 0}
    - target: {fileID: 2209777337237459925, guid: 2042526f67bc15941bb834865f5829d6,
        type: 3}
      propertyPath: m_AnchorMax.y
      value: 0.5
      objectReference: {fileID: 0}
    - target: {fileID: 2209777337237459925, guid: 2042526f67bc15941bb834865f5829d6,
        type: 3}
      propertyPath: m_AnchorMin.x
      value: 0.5
      objectReference: {fileID: 0}
    - target: {fileID: 2209777337237459925, guid: 2042526f67bc15941bb834865f5829d6,
        type: 3}
      propertyPath: m_AnchorMin.y
      value: 0.5
      objectReference: {fileID: 0}
    - target: {fileID: 2209777337237459925, guid: 2042526f67bc15941bb834865f5829d6,
        type: 3}
      propertyPath: m_SizeDelta.x
      value: 128
      objectReference: {fileID: 0}
    - target: {fileID: 2209777337237459925, guid: 2042526f67bc15941bb834865f5829d6,
        type: 3}
      propertyPath: m_SizeDelta.y
      value: 128
      objectReference: {fileID: 0}
    - target: {fileID: 2209777337237459925, guid: 2042526f67bc15941bb834865f5829d6,
        type: 3}
      propertyPath: m_LocalPosition.x
      value: 0
      objectReference: {fileID: 0}
    - target: {fileID: 2209777337237459925, guid: 2042526f67bc15941bb834865f5829d6,
        type: 3}
      propertyPath: m_LocalPosition.y
      value: 0
      objectReference: {fileID: 0}
    - target: {fileID: 2209777337237459925, guid: 2042526f67bc15941bb834865f5829d6,
        type: 3}
      propertyPath: m_LocalPosition.z
      value: 0
      objectReference: {fileID: 0}
    - target: {fileID: 2209777337237459925, guid: 2042526f67bc15941bb834865f5829d6,
        type: 3}
      propertyPath: m_LocalRotation.w
      value: 1
      objectReference: {fileID: 0}
    - target: {fileID: 2209777337237459925, guid: 2042526f67bc15941bb834865f5829d6,
        type: 3}
      propertyPath: m_LocalRotation.x
      value: 0
      objectReference: {fileID: 0}
    - target: {fileID: 2209777337237459925, guid: 2042526f67bc15941bb834865f5829d6,
        type: 3}
      propertyPath: m_LocalRotation.y
      value: 0
      objectReference: {fileID: 0}
    - target: {fileID: 2209777337237459925, guid: 2042526f67bc15941bb834865f5829d6,
        type: 3}
      propertyPath: m_LocalRotation.z
      value: 0
      objectReference: {fileID: 0}
    - target: {fileID: 2209777337237459925, guid: 2042526f67bc15941bb834865f5829d6,
        type: 3}
      propertyPath: m_AnchoredPosition.x
      value: 0
      objectReference: {fileID: 0}
    - target: {fileID: 2209777337237459925, guid: 2042526f67bc15941bb834865f5829d6,
        type: 3}
      propertyPath: m_AnchoredPosition.y
      value: 0
      objectReference: {fileID: 0}
    - target: {fileID: 2209777337237459925, guid: 2042526f67bc15941bb834865f5829d6,
        type: 3}
      propertyPath: m_LocalEulerAnglesHint.x
      value: 0
      objectReference: {fileID: 0}
    - target: {fileID: 2209777337237459925, guid: 2042526f67bc15941bb834865f5829d6,
        type: 3}
      propertyPath: m_LocalEulerAnglesHint.y
      value: 0
      objectReference: {fileID: 0}
    - target: {fileID: 2209777337237459925, guid: 2042526f67bc15941bb834865f5829d6,
        type: 3}
      propertyPath: m_LocalEulerAnglesHint.z
      value: 0
      objectReference: {fileID: 0}
    - target: {fileID: 4212421926809299700, guid: 2042526f67bc15941bb834865f5829d6,
        type: 3}
      propertyPath: m_Name
      value: AudioGameSettingsMenuItemButtonView
      objectReference: {fileID: 0}
    - target: {fileID: 4990974192381199189, guid: 2042526f67bc15941bb834865f5829d6,
        type: 3}
      propertyPath: m_Color.b
      value: 0.56078434
      objectReference: {fileID: 0}
    - target: {fileID: 4990974192381199189, guid: 2042526f67bc15941bb834865f5829d6,
        type: 3}
      propertyPath: m_Color.g
      value: 0
      objectReference: {fileID: 0}
    - target: {fileID: 4990974192381199189, guid: 2042526f67bc15941bb834865f5829d6,
        type: 3}
      propertyPath: m_Color.r
      value: 0.14509805
      objectReference: {fileID: 0}
    m_RemovedComponents: []
  m_SourcePrefab: {fileID: 100100000, guid: 2042526f67bc15941bb834865f5829d6, type: 3}
